<svg width="1440" height="1024" viewBox="0 0 1440 1024" fill="none" xmlns="http://www.w3.org/2000/svg">
<mask id="mask0_695_6846" style="mask-type:alpha" maskUnits="userSpaceOnUse" x="0" y="0" width="1440" height="1024">
<rect width="1440" height="1024" fill="url(#paint0_linear_695_6846)"/>
</mask>
<g mask="url(#mask0_695_6846)">
</g>
<g clip-path="url(#clip0_695_6846)">
<g opacity="0.6">
<g opacity="0.9">
<g opacity="0.9" filter="url(#filter0_i_695_6846)">
<path opacity="0.9" d="M1229.37 372.066C1166 332.491 1164.45 77.1813 1026 -48.988L1548.64 -63.5059V436.988C1503.15 437.472 1312.45 423.954 1229.37 372.066Z" fill="#EBF7F0" fill-opacity="0.07"/>
</g>
<path opacity="0.9" d="M1229.37 372.066C1166 332.491 1164.45 77.1813 1026 -48.988L1548.64 -63.5059V436.988C1503.15 437.472 1312.45 423.954 1229.37 372.066Z" stroke="white" stroke-opacity="0.39" stroke-width="2.34449"/>
</g>
<g opacity="0.5">
<g opacity="0.5" filter="url(#filter1_i_695_6846)">
<path opacity="0.5" d="M1533.8 261.886C1314.29 268.855 1206.18 73.1551 1179.56 -25.5658L1533.8 -32.8247C1625.26 62.5087 1753.31 254.918 1533.8 261.886Z" fill="#EBF7F0" fill-opacity="0.24"/>
</g>
<path opacity="0.5" d="M1533.8 261.886C1314.29 268.855 1206.18 73.1551 1179.56 -25.5658L1533.8 -32.8247C1625.26 62.5087 1753.31 254.918 1533.8 261.886Z" stroke="white" stroke-opacity="0.39" stroke-width="2.34449"/>
</g>
<g opacity="0.6" filter="url(#filter2_i_695_6846)">
<path opacity="0.6" d="M1544.29 127.369C1436.27 112.271 1395.72 35.9069 1388.94 -0.387527L1544.29 -14.9053C1589.29 38.8105 1652.3 142.468 1544.29 127.369Z" fill="#EBF7F0" fill-opacity="0.36"/>
</g>
<path opacity="0.6" d="M1544.29 127.369C1436.27 112.271 1395.72 35.9069 1388.94 -0.387527L1544.29 -14.9053C1589.29 38.8105 1652.3 142.468 1544.29 127.369Z" stroke="white" stroke-opacity="0.62" stroke-width="2.34449"/>
</g>
</g>
<g clip-path="url(#clip1_695_6846)">
<g opacity="0.6">
<g opacity="0.9">
<g opacity="0.9" filter="url(#filter3_i_695_6846)">
<path opacity="0.9" d="M105.143 750.094C104.936 675.366 -111.12 539.329 -145.302 355.111L-433.181 791.553L-8.0351 1055.65C16.3587 1017.25 105.415 848.074 105.143 750.094Z" fill="#EBF7F0" fill-opacity="0.07"/>
</g>
<path opacity="0.9" d="M105.143 750.094C104.936 675.366 -111.12 539.329 -145.302 355.111L-433.181 791.553L-8.0351 1055.65C16.3587 1017.25 105.415 848.074 105.143 750.094Z" stroke="white" stroke-opacity="0.39" stroke-width="2.34449"/>
</g>
<g opacity="0.5">
<g opacity="0.5" filter="url(#filter4_i_695_6846)">
<path opacity="0.5" d="M-27.1163 1022.67C94.5326 839.821 -14.7078 644.694 -84.5341 569.986L-277.459 867.158C-244.699 995.18 -148.765 1205.51 -27.1163 1022.67Z" fill="#EBF7F0" fill-opacity="0.24"/>
</g>
<path opacity="0.5" d="M-27.1163 1022.67C94.5326 839.821 -14.7078 644.694 -84.5341 569.986L-277.459 867.158C-244.699 995.18 -148.765 1205.51 -27.1163 1022.67Z" stroke="white" stroke-opacity="0.39" stroke-width="2.34449"/>
</g>
</g>
</g>
<defs>
<filter id="filter0_i_695_6846" x="1026" y="-63.5059" width="522.64" height="505.195" filterUnits="userSpaceOnUse" color-interpolation-filters="sRGB">
<feFlood flood-opacity="0" result="BackgroundImageFix"/>
<feBlend mode="normal" in="SourceGraphic" in2="BackgroundImageFix" result="shape"/>
<feColorMatrix in="SourceAlpha" type="matrix" values="0 0 0 0 0 0 0 0 0 0 0 0 0 0 0 0 0 0 127 0" result="hardAlpha"/>
<feOffset dy="4.68898"/>
<feGaussianBlur stdDeviation="21.6865"/>
<feComposite in2="hardAlpha" operator="arithmetic" k2="-1" k3="1"/>
<feColorMatrix type="matrix" values="0 0 0 0 0.227451 0 0 0 0 0.592157 0 0 0 0 0.4 0 0 0 0.42 0"/>
<feBlend mode="normal" in2="shape" result="effect1_innerShadow_695_6846"/>
</filter>
<filter id="filter1_i_695_6846" x="1179.56" y="-32.8247" width="475.437" height="299.581" filterUnits="userSpaceOnUse" color-interpolation-filters="sRGB">
<feFlood flood-opacity="0" result="BackgroundImageFix"/>
<feBlend mode="normal" in="SourceGraphic" in2="BackgroundImageFix" result="shape"/>
<feColorMatrix in="SourceAlpha" type="matrix" values="0 0 0 0 0 0 0 0 0 0 0 0 0 0 0 0 0 0 127 0" result="hardAlpha"/>
<feOffset dy="4.68898"/>
<feGaussianBlur stdDeviation="21.6865"/>
<feComposite in2="hardAlpha" operator="arithmetic" k2="-1" k3="1"/>
<feColorMatrix type="matrix" values="0 0 0 0 0.227451 0 0 0 0 0.592157 0 0 0 0 0.4 0 0 0 0.47 0"/>
<feBlend mode="normal" in2="shape" result="effect1_innerShadow_695_6846"/>
</filter>
<filter id="filter2_i_695_6846" x="1388.94" y="-14.9053" width="214.98" height="148.45" filterUnits="userSpaceOnUse" color-interpolation-filters="sRGB">
<feFlood flood-opacity="0" result="BackgroundImageFix"/>
<feBlend mode="normal" in="SourceGraphic" in2="BackgroundImageFix" result="shape"/>
<feColorMatrix in="SourceAlpha" type="matrix" values="0 0 0 0 0 0 0 0 0 0 0 0 0 0 0 0 0 0 127 0" result="hardAlpha"/>
<feOffset dy="4.68898"/>
<feGaussianBlur stdDeviation="21.6865"/>
<feComposite in2="hardAlpha" operator="arithmetic" k2="-1" k3="1"/>
<feColorMatrix type="matrix" values="0 0 0 0 0.227451 0 0 0 0 0.592157 0 0 0 0 0.4 0 0 0 0.55 0"/>
<feBlend mode="normal" in2="shape" result="effect1_innerShadow_695_6846"/>
</filter>
<filter id="filter3_i_695_6846" x="-433.181" y="355.111" width="538.324" height="705.222" filterUnits="userSpaceOnUse" color-interpolation-filters="sRGB">
<feFlood flood-opacity="0" result="BackgroundImageFix"/>
<feBlend mode="normal" in="SourceGraphic" in2="BackgroundImageFix" result="shape"/>
<feColorMatrix in="SourceAlpha" type="matrix" values="0 0 0 0 0 0 0 0 0 0 0 0 0 0 0 0 0 0 127 0" result="hardAlpha"/>
<feOffset dy="4.68898"/>
<feGaussianBlur stdDeviation="21.6865"/>
<feComposite in2="hardAlpha" operator="arithmetic" k2="-1" k3="1"/>
<feColorMatrix type="matrix" values="0 0 0 0 0.227451 0 0 0 0 0.592157 0 0 0 0 0.4 0 0 0 0.52 0"/>
<feBlend mode="normal" in2="shape" result="effect1_innerShadow_695_6846"/>
</filter>
<filter id="filter4_i_695_6846" x="-277.459" y="569.986" width="305.066" height="528.923" filterUnits="userSpaceOnUse" color-interpolation-filters="sRGB">
<feFlood flood-opacity="0" result="BackgroundImageFix"/>
<feBlend mode="normal" in="SourceGraphic" in2="BackgroundImageFix" result="shape"/>
<feColorMatrix in="SourceAlpha" type="matrix" values="0 0 0 0 0 0 0 0 0 0 0 0 0 0 0 0 0 0 127 0" result="hardAlpha"/>
<feOffset dy="4.68898"/>
<feGaussianBlur stdDeviation="21.6865"/>
<feComposite in2="hardAlpha" operator="arithmetic" k2="-1" k3="1"/>
<feColorMatrix type="matrix" values="0 0 0 0 0.227451 0 0 0 0 0.592157 0 0 0 0 0.4 0 0 0 0.47 0"/>
<feBlend mode="normal" in2="shape" result="effect1_innerShadow_695_6846"/>
</filter>
<linearGradient id="paint0_linear_695_6846" x1="-9.52184e-06" y1="89.6" x2="858.427" y2="1296.76" gradientUnits="userSpaceOnUse">
<stop stop-color="#E5277C"/>
<stop offset="0.263542" stop-color="#E22F93"/>
<stop offset="0.648958" stop-color="#C035B2"/>
<stop offset="1" stop-color="#7162C5"/>
</linearGradient>
<clipPath id="clip0_695_6846">
<rect width="417" height="439" fill="white" transform="translate(1023)"/>
</clipPath>
<clipPath id="clip1_695_6846">
<rect width="306" height="724" fill="white" transform="translate(0 300)"/>
</clipPath>
</defs>
</svg>
