<svg width="375" height="815" viewBox="0 0 375 815" fill="none" xmlns="http://www.w3.org/2000/svg">
<g clip-path="url(#clip0_707_8112)">
<g opacity="0.6">
<g opacity="0.9" filter="url(#filter0_i_707_8112)">
<path opacity="0.9" d="M294.324 142.384C270.052 127.239 269.457 29.5356 216.43 -18.7479L416.61 -24.3037V167.229C399.187 167.414 326.147 162.241 294.324 142.384Z" fill="#EBF7F0" fill-opacity="0.31"/>
</g>
<path opacity="0.9" d="M294.323 142.384C270.052 127.239 269.457 29.5356 216.429 -18.7479L416.61 -24.3037V167.229C399.187 167.414 326.146 162.241 294.323 142.384Z" stroke="white" stroke-opacity="0.39" stroke-width="0.897981"/>
<g opacity="0.5" filter="url(#filter1_i_707_8112)">
<path opacity="0.5" d="M410.925 100.22C326.849 102.887 285.442 27.9952 275.247 -9.78412L410.925 -12.562C445.957 23.9209 495.001 97.5537 410.925 100.22Z" fill="#EBF7F0" fill-opacity="0.63"/>
</g>
<path opacity="0.5" d="M410.925 100.22C326.85 102.887 285.442 27.9952 275.248 -9.78412L410.925 -12.562C445.957 23.9209 495.001 97.5537 410.925 100.22Z" stroke="white" stroke-opacity="0.39" stroke-width="0.897981"/>
<g filter="url(#filter2_i_707_8112)">
<path opacity="0.6" d="M414.943 48.742C373.572 42.9641 358.039 13.7406 355.444 -0.148823L414.943 -5.70459C432.18 14.8518 456.313 54.5202 414.943 48.742Z" fill="#EBF7F0" fill-opacity="0.56"/>
</g>
<path d="M414.943 48.742C373.572 42.9641 358.039 13.7406 355.444 -0.148823L414.943 -5.70459C432.18 14.8518 456.313 54.5202 414.943 48.742Z" stroke="white" stroke-opacity="0.62" stroke-width="0.897981"/>
</g>
</g>
<g clip-path="url(#clip1_707_8112)">
<g opacity="0.6">
<g opacity="0.9">
<g opacity="0.9" filter="url(#filter3_i_707_8112)">
<path opacity="0.9" d="M42.2623 702.286C42.1791 672.354 -44.6669 617.864 -58.4067 544.075L-174.123 718.893L-3.23097 824.675C6.5744 809.295 42.3716 741.532 42.2623 702.286Z" fill="#EBF7F0" fill-opacity="0.07"/>
</g>
<path opacity="0.9" d="M42.2621 702.286C42.1789 672.354 -44.6671 617.864 -58.4069 544.075L-174.123 718.893L-3.23115 824.675C6.57421 809.295 42.3715 741.532 42.2621 702.286Z" stroke="white" stroke-opacity="0.39" stroke-width="0.939091"/>
</g>
<g opacity="0.5">
<g opacity="0.5" filter="url(#filter4_i_707_8112)">
<path opacity="0.5" d="M-10.9005 811.466C37.9975 738.227 -5.91282 660.068 -33.9803 630.144L-111.529 749.177C-98.3603 800.456 -59.7986 884.706 -10.9005 811.466Z" fill="#EBF7F0" fill-opacity="0.24"/>
</g>
<path opacity="0.5" d="M-10.9003 811.466C37.9978 738.227 -5.91257 660.068 -33.98 630.144L-111.528 749.177C-98.36 800.456 -59.7983 884.706 -10.9003 811.466Z" stroke="white" stroke-opacity="0.39" stroke-width="0.939091"/>
</g>
</g>
</g>
<defs>
<filter id="filter0_i_707_8112" x="216.43" y="-24.3037" width="200.18" height="193.334" filterUnits="userSpaceOnUse" color-interpolation-filters="sRGB">
<feFlood flood-opacity="0" result="BackgroundImageFix"/>
<feBlend mode="normal" in="SourceGraphic" in2="BackgroundImageFix" result="shape"/>
<feColorMatrix in="SourceAlpha" type="matrix" values="0 0 0 0 0 0 0 0 0 0 0 0 0 0 0 0 0 0 127 0" result="hardAlpha"/>
<feOffset dy="1.79596"/>
<feGaussianBlur stdDeviation="8.30631"/>
<feComposite in2="hardAlpha" operator="arithmetic" k2="-1" k3="1"/>
<feColorMatrix type="matrix" values="0 0 0 0 0.227451 0 0 0 0 0.592157 0 0 0 0 0.4 0 0 0 0.42 0"/>
<feBlend mode="normal" in2="shape" result="effect1_innerShadow_707_8112"/>
</filter>
<filter id="filter1_i_707_8112" x="275.247" y="-12.562" width="182.1" height="114.648" filterUnits="userSpaceOnUse" color-interpolation-filters="sRGB">
<feFlood flood-opacity="0" result="BackgroundImageFix"/>
<feBlend mode="normal" in="SourceGraphic" in2="BackgroundImageFix" result="shape"/>
<feColorMatrix in="SourceAlpha" type="matrix" values="0 0 0 0 0 0 0 0 0 0 0 0 0 0 0 0 0 0 127 0" result="hardAlpha"/>
<feOffset dy="1.79596"/>
<feGaussianBlur stdDeviation="8.30631"/>
<feComposite in2="hardAlpha" operator="arithmetic" k2="-1" k3="1"/>
<feColorMatrix type="matrix" values="0 0 0 0 0.227451 0 0 0 0 0.592157 0 0 0 0 0.4 0 0 0 0.47 0"/>
<feBlend mode="normal" in2="shape" result="effect1_innerShadow_707_8112"/>
</filter>
<filter id="filter2_i_707_8112" x="355.444" y="-5.70459" width="82.3411" height="56.8111" filterUnits="userSpaceOnUse" color-interpolation-filters="sRGB">
<feFlood flood-opacity="0" result="BackgroundImageFix"/>
<feBlend mode="normal" in="SourceGraphic" in2="BackgroundImageFix" result="shape"/>
<feColorMatrix in="SourceAlpha" type="matrix" values="0 0 0 0 0 0 0 0 0 0 0 0 0 0 0 0 0 0 127 0" result="hardAlpha"/>
<feOffset dy="1.79596"/>
<feGaussianBlur stdDeviation="8.30631"/>
<feComposite in2="hardAlpha" operator="arithmetic" k2="-1" k3="1"/>
<feColorMatrix type="matrix" values="0 0 0 0 0.227451 0 0 0 0 0.592157 0 0 0 0 0.4 0 0 0 0.55 0"/>
<feBlend mode="normal" in2="shape" result="effect1_innerShadow_707_8112"/>
</filter>
<filter id="filter3_i_707_8112" x="-174.123" y="544.075" width="216.385" height="282.479" filterUnits="userSpaceOnUse" color-interpolation-filters="sRGB">
<feFlood flood-opacity="0" result="BackgroundImageFix"/>
<feBlend mode="normal" in="SourceGraphic" in2="BackgroundImageFix" result="shape"/>
<feColorMatrix in="SourceAlpha" type="matrix" values="0 0 0 0 0 0 0 0 0 0 0 0 0 0 0 0 0 0 127 0" result="hardAlpha"/>
<feOffset dy="1.87818"/>
<feGaussianBlur stdDeviation="8.68658"/>
<feComposite in2="hardAlpha" operator="arithmetic" k2="-1" k3="1"/>
<feColorMatrix type="matrix" values="0 0 0 0 0.227451 0 0 0 0 0.592157 0 0 0 0 0.4 0 0 0 0.52 0"/>
<feBlend mode="normal" in2="shape" result="effect1_innerShadow_707_8112"/>
</filter>
<filter id="filter4_i_707_8112" x="-111.529" y="630.144" width="122.625" height="211.861" filterUnits="userSpaceOnUse" color-interpolation-filters="sRGB">
<feFlood flood-opacity="0" result="BackgroundImageFix"/>
<feBlend mode="normal" in="SourceGraphic" in2="BackgroundImageFix" result="shape"/>
<feColorMatrix in="SourceAlpha" type="matrix" values="0 0 0 0 0 0 0 0 0 0 0 0 0 0 0 0 0 0 127 0" result="hardAlpha"/>
<feOffset dy="1.87818"/>
<feGaussianBlur stdDeviation="8.68658"/>
<feComposite in2="hardAlpha" operator="arithmetic" k2="-1" k3="1"/>
<feColorMatrix type="matrix" values="0 0 0 0 0.227451 0 0 0 0 0.592157 0 0 0 0 0.4 0 0 0 0.47 0"/>
<feBlend mode="normal" in2="shape" result="effect1_innerShadow_707_8112"/>
</filter>
<clipPath id="clip0_707_8112">
<rect width="159.718" height="168" fill="white" transform="translate(215.281)"/>
</clipPath>
<clipPath id="clip1_707_8112">
<rect width="123" height="290" fill="white" transform="translate(0 522)"/>
</clipPath>
</defs>
</svg>
